[
	{
		"version": "1.0",
		"fontfamily": "font",
		"fontweight": "normal",
		"fontstyle": "normal",
		"src": {
			"ttf": "./src/fonts/font.ttf",
			"woff": "./src/fonts/font.woff",
			"eot": "./src/fonts/font.eot",
			"svg": "./src/fonts/font.svg"
		}
	}
]